type	gene	x1	x2	color
I	ccrA	23692	25041	yellow
I	ccrB	25063	26214	darkorange
I	mecA	31390	33396	blue
I	mecR1	31290	30304	lavender
I	IS1272	28473	30057	orange
I	IS431	35957	36748	darkgreen
IIa	ccrA	25411	26760	yellow
IIa	ccrB	26782	28410	darkorange
IIa	mecA	44770	46776	blue
IIa	mecR1	44670	42913	lavender
IIa	mecI	42913	42542	red
IIa	IS431	49295	50086	darkgreen
IIa	IS431b	54642	55432	darkgreen
IIb	ccrA	6563	7912	yellow
IIb	ccrB	7934	9562	darkorange
IIb	mecR1	26207	25401	lavender
IIb	mecI	25398	25030	red
IIe	ccrA	5584	6933	yellow
IIe	ccrB	6955	8583	darkorange
IIe	mecA	20316	22322	blue
IIe	mecR1	20216	18459	lavender
IIe	mecI	18459	18207	red
IIe	IS431	23844	24635	darkgreen
III	ccrA	5430	6776	yellow
III	ccrB	6797	8425	darkorange
III	mecA	24421	26427	blue
III	mecR1	24321	24208	lavender
III	mecI	22730	22527	red
III	IS431	28986	29776	darkgreen
III	IS431b	34225	35014	darkgreen
III	IS431c	34999	35014	darkgreen
III	IS431d	36066	36856	darkgreen
IVa	ccrA	9888	11237	yellow
IVa	ccrB	11259	12887	darkorange
IVa	mecA	17646	19652	blue
IVa	mecR1	17549	16560	lavender
IVa	IS1272	14679	16337	orange
IVa	IS431	22211	23002	darkgreen
IVb	ccrA	5885	7234	yellow
IVb	ccrB	7256	8884	darkorange
IVb	mecA	13643	15649	blue
IVb	mecR1	13543	12557	lavender
IVb	IS1272	14789	16371	orange
IVb	IS431	18208	18999	darkgreen
IVc	ccrA	12581	13930	yellow
IVc	ccrB	13952	15580	darkorange
IVc	mecA	20340	22346	blue
IVc	mecR1	20240	19254	lavender
IVc	IS431	24905	24921	darkgreen
IVd	ccrA	9252	10565	yellow
IVd	ccrB	1644	3293	darkorange
IVe	ccrA	6067	7416	yellow
IVe	ccrB	7438	9051	darkorange
IVe	mecA	13811	15817	blue
IVe	mecR1	13711	12752	lavender
IVe	IS431	18375	19164	darkgreen
IVg	ccrA	7391	8740	yellow
IVg	ccrB	8796	10391	darkorange
IVg	mecA	15150	17156	blue
IVg	mecR1	15050	14064	lavender
IVg	IS1272	16135	17878	orange
IVg	IS431	19717	20508	darkgreen
IVh	ccrA	39327	37978	yellow
IVh	ccrB	37977	36328	darkorange
IVh	mecA	31569	29563	blue
IVh	mecR1	31669	32655	lavender
IVh	IS1272	34401	32878	orange
IVh	IS431	12102	12893	darkgreen
IVi	ccrA	17359	16010	yellow
IVi	ccrB	15988	14360	darkorange
IVi	mecA	8043	6037	blue
IVi	mecR1	8143	9129	lavender
IVi	IS1272	12433	10922	orange
IVi	IS431	3421	2747	darkgreen
IVj	ccrA	15800	14451	yellow
IVj	ccrB	14450	12801	darkorange
IVj	mecA	8042	6036	blue
IVj	mecR1	8142	9128	lavender
IVj	IS1272	10874	9351	orange
IVj	IS431	3420	2746	darkgreen
IVl	ccrA	15815	14448	yellow
IVl	ccrB	14447	12798	darkorange
IVl	mecA	8039	6033	blue
IVl	mecR1	8139	9125	lavender
IVl	IS1272	10871	9348	orange
IVl	IS431	2684	3475	darkgreen
V	ccrC	16132	17754	deepskyblue
V	mecA	8029	6023	blue
V	mecR1	8129	8239	lavender
V	IS431	8221	9011	darkgreen
V	IS431b	3423	2635	darkgreen
VI	ccrA	7849	9210	yellow
VI	ccrB	9207	10535	darkorange
VI	mecA	15571	17577	blue
VI	mecR1	15453	14475	lavender
VI	IS1272	12634	14241	orange
VI	IS431	20136	20927	darkgreen
VII	ccrC	7365	9041	deepskyblue
VII	mecA	22477	20471	blue
VII	mecR1	22577	23575	lavender
VII	IS431	17855	17181	darkgreen
VII	IS431b	24277	23603	darkgreen
VIII	ccrA	6511	7872	yellow
VIII	ccrB	7869	9497	darkorange
VIII	mecA	25839	27845	blue
VIII	mecR1	25739	23982	lavender
VIII	mecI	23912	23610	red
VIII	IS431	30421	31092	darkgreen
IX	ccrA	12214	10865	yellow
IX	ccrB	10843	9218	darkorange
IX	mecA	25329	23320	blue
IX	IS431	19918	20720	darkgreen
IX	IS431b	25518	26307	darkgreen
X	ccrA	19384	18035	yellow
X	ccrB	18013	16556	darkorange
X	mecA	5948	7957	blue
X	IS431	5045	5834	darkgreen
X	IS431b	10677	11466	darkgreen
XI	ccrA	13288	11939	yellow
XI	ccrB	11918	10290	darkorange
XI	blaZ	1647	796	chocolate
XI	mecA	3738	1741	blue
XI	mecR1	3839	5593	lavender
XI	mecI	5590	5964	red
