1	1280	
2	928810	3577
3	553582	A9305
4	548472	USA300_TCH959
5	1280	
6	663951	TW20
7	548472	USA300_TCH959
8	548475	TCH70
9	548475	TCH70
10	931435	CIG1214
11	931435	CIG1214
12	548474	130/ST-72 
13	548470	MN8
14	548473	TCH60
15	548473	TCH60
16	548475	TCH70
17	1280	
18	1280	
19	1280	
20	1280	
21	1280	
22	1280	
23	1280	
24	1280	
25	1280	
26	553565	A5937
27	553567	A5948
28	553568	A6224
29	553571	A6300
30	553573	A8115
31	553574	A8117
32	553577	A8796
33	553580	A8819
34	553581	A9299
35	553583	A9635
36	553588	A9719
37	553590	A9754
38	553592	A9763
39	553594	A9765
40	553596	A9781
41	553601	A10102
42	553566	A5940
43	553569	A6226
44	553570	A6298
45	553572	A6658
46	553575	A8118
47	553576	A8392
48	553578	A8799
49	553579	A8817
50	553584	A9636
51	553585	A9637
52	553586	A9638
53	553587	A9639
54	553589	A9744
55	553591	A9757
56	553593	A9764
57	553595	A9766
58	553597	A9784
59	553598	A9788
60	553599	A9792
61	553600	A9798
62	553602	A10103
63	553603	A10135
64	553604	A10136
65	553608	A10154
66	553610	A10156
67	585120	01.7997.S
68	585121	4022
69	585122	4030
70	585123	55/2237
71	585124	55/2798
72	585125	55/3224
73	585126	55/3488
74	585127	58-362
75	585128	65-1119
76	585129	65-20
77	585130	66-1888
78	585132	67-43
79	585133	68-81
80	585134	69-172
81	585135	69-412
82	585136	75916
83	585137	BH26-04
84	585139	M1016
85	585140	M765
86	585141	M859
87	585142	WW2707/97
88	1280	USA300
89	1280	USA300
90	1280	USA300
91	1280	USA300
92	1280	USA300
93	1280	USA300
94	1280	USA300
95	1280	USA300
96	1280	USA300
97	1280	USA300
98	1280	USA300
99	1280	USA300
100	1280	USA300
101	1280	USA300
102	1280	USA300
103	1280	USA300
104	1280	USA300
105	1280	USA300
106	1280	USA300
107	1280	USA300
108	1280	USA300
109	1280	USA300
110	1280	USA300
111	1280	USA300
112	1280	USA300
113	1280	USA300
114	1280	USA300
115	1280	USA300
116	1280	USA300
117	1280	USA300
118	1280	USA300
119	1280	
120	1280	
121	1280	
122	1280	
123	1280	
124	1280	
125	1280	
126	1280	
127	1280	USA300
128	1280	
129	1280	USA300
130	875056	1185
131	875044	Q2352
132	875053	VRS3
133	875053	VRS3
134	875048	10243
135	904727	21194
136	904725	21189
137	904730	21200
138	904729	21196
139	904773	21343
140	904770	21338
141	904760	21310
142	904726	21193
143	904724	21178
144	904728	21195
145	928800	7211
146	928808	2818
147	928809	2282
148	928807	6939
149	928799	7210
150	928801	2283
151	928802	2819
152	904723	21172
153	904775	IS-3
154	904790	IS-278
155	904789	IS-250
156	904778	IS-88
157	904779	IS-91
158	904780	IS-99
159	904785	IS-157
160	1130830	BK22179
161	1280	
162	1280	
163	1280	
164	1280	
165	1280	
166	1280	
167	1280	
168	1280	
169	1280	
170	1280	
171	1280	
172	1280	
173	1280	
174	1280	
175	1280	
176	1280	
177	1280	
178	1280	
179	1280	
180	1280	
181	1280	
182	1280	
183	1280	
184	1280	
185	1280	
186	1280	
187	1280	
188	1280	
189	1280	
190	1280	
191	1280	
192	1280	
193	1280	
194	1280	
195	1280	
196	1280	
197	1280	
198	1280	
199	1280	
200	1280	
201	1280	
202	1280	
203	1280	
204	1280	
205	1280	
206	1280	
207	1280	
208	1280	
209	1280	
210	1280	
211	1280	
212	1280	
213	1280	
214	1280	
215	1280	
216	1280	
217	1280	
218	1280	
219	1280	
220	1280	
221	1280	
222	1280	
223	1280	
224	1280	
225	1280	
226	1280	
227	1280	
228	1280	
229	1280	
230	1280	
231	1280	
232	1280	
233	1280	
234	1280	
235	1280	
236	1280	
237	1280	
238	1280	
239	1280	
240	1280	
241	1280	
242	1280	
243	1280	
244	1280	
245	1280	
246	1280	
247	1280	
248	1280	
249	1280	
250	1280	
251	1280	
252	1280	
253	1280	
254	1280	
255	1280	
256	1280	
257	1280	
258	1280	
259	1280	
260	1280	
261	1280	
262	1280	
263	1280	
264	1280	
265	1280	
266	1280	
267	1280	
268	1280	
269	1280	
270	1280	
271	1280	
272	1280	
273	1280	
274	1280	
275	1280	
276	1280	
277	1280	
278	1280	
279	1280	
280	1280	
281	1280	
282	1280	
283	1280	
284	1280	
285	1280	
286	1280	
287	1280	
288	1280	
289	1280	
290	1280	
291	1280	
292	1280	
293	1280	
294	1280	
295	1280	
296	1280	
297	1280	
298	1280	
299	1280	
300	1280	
301	1280	
302	1280	
303	1280	
304	1280	
305	1280	
306	1280	
307	1280	
308	1280	
309	1280	
310	1280	
311	1280	
312	1280	
313	1280	
314	1280	
315	1280	
316	1280	
317	1280	
318	1280	
319	1280	
320	1280	
321	1280	
322	1280	
323	1280	
324	1280	
325	1280	
326	1280	
327	1280	
328	1280	
329	1280	
330	1280	
331	1280	
332	1280	
333	1280	
334	1280	
335	1280	
336	1280	
337	1280	
338	1280	
339	1280	
340	1280	
341	1280	
342	1280	
343	1280	
344	1280	
345	1280	
346	1280	
347	1280	
348	1280	
349	1280	
350	1280	
351	1280	
352	1280	
353	1280	
354	1280	
355	1280	
356	1280	
357	1280	
358	1280	
359	1280	
360	1280	
361	1280	
362	1280	
363	1280	
364	1280	
365	1280	
366	1280	
367	1280	
368	1280	
369	1280	
370	1280	
371	1280	
372	1280	
373	1280	
374	1280	
375	1280	
376	1280	
377	1280	
378	1280	
379	1280	
380	1280	
381	1280	
382	1280	
383	1280	
384	1280	
385	1280	
386	1280	
387	1280	
388	1280	
389	1280	
390	1280	
391	663951	TW20
392	663951	TW20
393	663951	TW20
394	663951	TW20
395	663951	TW20
396	663951	TW20
397	663951	TW20
398	663951	TW20
399	663951	TW20
400	663951	TW20
401	663951	TW20
402	663951	TW20
403	663951	TW20
404	663951	TW20
405	663951	TW20
406	663951	TW20
407	663951	TW20
408	663951	TW20
409	663951	TW20
410	663951	TW20
411	663951	TW20
412	663951	TW20
413	663951	TW20
414	663951	TW20
415	663951	TW20
416	663951	TW20
417	663951	TW20
418	663951	TW20
419	663951	TW20
420	1280	
421	1280	
422	1280	
423	1280	
424	1280	
425	1280	
426	1280	
427	1280	
428	1280	
429	1280	
430	1280	
431	1280	
432	1280	
433	1280	
434	1280	
435	1280	
436	1280	
437	1280	
438	1280	
439	1280	
440	1280	
441	1280	
442	1280	
443	1280	
444	1280	
445	1280	
446	1280	
447	1280	
448	1280	
449	1280	
450	1280	
451	1280	
452	1280	
453	1280	
454	1280	
455	1280	
456	1280	
457	1280	
458	1280	
459	1280	
460	1280	
461	1280	
462	1280	
463	1280	
464	1280	
465	1280	
466	1280	
467	1280	
468	1280	
469	1280	
470	1280	
471	1280	
472	1280	
473	1280	
474	1280	
475	1280	
476	1280	
477	1280	
478	1280	
479	1280	
480	1280	
481	1280	
482	1280	
483	1280	
484	663951	TW20
485	663951	TW20
486	663951	TW20
487	663951	TW20
488	663951	TW20
489	663951	TW20
490	1280	
491	1280	
492	1280	
493	1280	
494	1280	
495	1280	
496	1280	
497	1280	
498	1280	
499	1280	
500	1280	
501	1280	
502	1280	
503	1280	
504	1280	
505	1280	
506	1280	
507	1280	
508	1280	
509	1280	
510	1280	
511	1280	
512	1280	
513	1280	
514	1280	
515	1280	
516	1280	
517	1280	
518	1280	
519	1280	
520	1280	
521	1280	
522	1280	
523	1280	
524	1280	
525	1280	
526	1280	
527	1280	
528	1280	
529	1280	
530	1280	
531	1280	
532	1280	
533	1280	
534	1280	
535	1280	
536	1280	
537	1280	
538	1280	
539	1280	
540	1280	
541	1280	
542	1280	
543	1280	
544	1280	
545	1280	
546	1280	
547	1280	
548	1280	
549	1280	
550	1280	
551	1280	
552	1280	
553	1280	
554	1280	
555	1280	
556	1280	
557	1280	
558	1280	
559	1280	
560	1280	
561	1280	
562	1280	
563	1280	
564	1280	
565	1280	
566	1280	
567	1280	
568	1280	
569	1280	
570	1280	
571	1280	
572	1280	
573	1280	
574	931432	CIG1057
575	931432	CIG1057
576	931443	CIG1096
577	931443	CIG1096
578	931433	CIG1114
579	931433	CIG1114
580	931444	CIG1150
581	931444	CIG1150
582	931434	CIG1165
583	931434	CIG1165
584	931445	CIG1176
585	931445	CIG1176
586	931446	CIG 1213
587	931446	CIG 1213
588	931435	CIG1214
589	931447	CIG1233
590	931447	CIG1233
591	931436	CIG 1242
592	931436	CIG 1242
593	931452	CIG1267
594	931452	CIG1267
595	931453	CIG149
596	931437	CIG1500
597	931437	CIG1500
598	931454	CIG1524
599	931454	CIG1524
600	931438	CIG1605
601	931438	CIG1605
602	931440	CIG1769
603	931440	CIG1769
604	931441	CIG1835
605	931441	CIG1835
606	931451	CIG290
607	931451	CIG290
608	931442	CIG547
609	931442	CIG547
610	931459	CIGC128
611	931459	CIGC128
612	931456	CIGC341D
613	931456	CIGC341D
614	931457	CIGC345D
615	931457	CIGC345D
616	931458	CIGC348
617	931458	CIGC348
618	931460	CIGC93
619	931460	CIGC93
620	931448	CIG1612
621	931448	CIG1612
622	931439	CIG1750
623	931439	CIG1750
624	931439	CIG1750
625	931449	CIG1770
626	931455	CIGC340D
627	931450	CIG2018
628	931450	CIG2018
629	1280	ED84
630	1280	ED86
631	46170	JKD6210
632	46170	JKD6229
633	46170	JKD6177
634	46170	JKD6260
635	46170	JKD6272
636	1280	
637	1280	
638	1280	JKD6004
639	1280	JKD6005
640	1280	JKD6021
641	1280	JKD6023
642	1280	JKD6051
643	1280	JKD6052
644	46170	JKD6004
645	546343	JKD6009
646	367830	USA300
647	367830	USA300
648	754025	MRSA131
649	754026	MRSA177
650	754026	MRSA177
651	754025	MRSA131
